{
"face": {
    "x": 0.0,
    "y": 0.0,
    "z": 0.0,
    "num_sides": 6,
    "area": 1.0,
    "perimeter": 1.0,
    "is_alive": 1
    },
 "vert": {
     "x": 0.0,
     "y": 0.0,
     "z": 0.0,
     "is_active": 1,
     "rho": 0.0,
     "height": 0.0,
     "basal_shift": 4.0
     },
"edge": {
    "srce": 0,
    "trgt": 0,
    "face": 0,
    "dx": 0.0,
    "dy": 0.0,
    "dz": 0.0,
    "nx": 0.0,
    "ny": 0.0,
    "nz": 1.0,
    "length": 0.0
    },
"settings": {
    "geometry": "flat",
    "height_axis": "z"
    }
}
